solid OpenSCAD_Model
  facet normal 0 1 0
    outer loop
      vertex 22.48 2 6
      vertex 30.48 2 0
      vertex 10 2 6
    endloop
  endfacet
  facet normal 0 1 -0
    outer loop
      vertex 30.48 2 0
      vertex 22.48 2 6
      vertex 30.48 2 30
    endloop
  endfacet
  facet normal 0 1 0
    outer loop
      vertex 10 2 6
      vertex 2 2 0
      vertex 2 2 30
    endloop
  endfacet
  facet normal 0 1 0
    outer loop
      vertex 2 2 0
      vertex 10 2 6
      vertex 30.48 2 0
    endloop
  endfacet
  facet normal 0 -1 0
    outer loop
      vertex 0 0 30
      vertex 10 0 6
      vertex 2 0 30
    endloop
  endfacet
  facet normal 0 -1 0
    outer loop
      vertex 0 0 0
      vertex 22.48 0 6
      vertex 10 0 6
    endloop
  endfacet
  facet normal 0 -1 -0
    outer loop
      vertex 22.48 0 6
      vertex 0 0 0
      vertex 40.48 0 6
    endloop
  endfacet
  facet normal 0 -1 -0
    outer loop
      vertex 40.48 0 6
      vertex 0 0 0
      vertex 52.96 0 6
    endloop
  endfacet
  facet normal 0 -1 0
    outer loop
      vertex 93.44 0 0
      vertex 52.96 0 6
      vertex 0 0 0
    endloop
  endfacet
  facet normal 0 -1 0
    outer loop
      vertex 52.96 0 6
      vertex 93.44 0 0
      vertex 70.96 0 6
    endloop
  endfacet
  facet normal 0 -1 0
    outer loop
      vertex 0 0 0
      vertex 10 0 6
      vertex 0 0 30
    endloop
  endfacet
  facet normal 0 -1 0
    outer loop
      vertex 22.48 0 6
      vertex 32.48 0 30
      vertex 30.48 0 30
    endloop
  endfacet
  facet normal 0 -1 -0
    outer loop
      vertex 32.48 0 30
      vertex 22.48 0 6
      vertex 40.48 0 6
    endloop
  endfacet
  facet normal 0 -1 0
    outer loop
      vertex 52.96 0 6
      vertex 62.96 0 30
      vertex 60.96 0 30
    endloop
  endfacet
  facet normal 0 -1 -0
    outer loop
      vertex 62.96 0 30
      vertex 52.96 0 6
      vertex 70.96 0 6
    endloop
  endfacet
  facet normal 0 -1 0
    outer loop
      vertex 83.44 0 6
      vertex 93.44 0 30
      vertex 91.44 0 30
    endloop
  endfacet
  facet normal 0 -1 0
    outer loop
      vertex 83.44 0 6
      vertex 93.44 0 0
      vertex 93.44 0 30
    endloop
  endfacet
  facet normal 0 -1 0
    outer loop
      vertex 70.96 0 6
      vertex 93.44 0 0
      vertex 83.44 0 6
    endloop
  endfacet
  facet normal -0 0 1
    outer loop
      vertex 30.48 2 30
      vertex 32.48 0 30
      vertex 32.48 2 30
    endloop
  endfacet
  facet normal 0 0 1
    outer loop
      vertex 30.48 2 30
      vertex 30.48 0 30
      vertex 32.48 0 30
    endloop
  endfacet
  facet normal -0.948683 0 0.316228
    outer loop
      vertex 22.48 0 6
      vertex 30.48 2 30
      vertex 22.48 2 6
    endloop
  endfacet
  facet normal -0.948683 0 0.316228
    outer loop
      vertex 30.48 2 30
      vertex 22.48 0 6
      vertex 30.48 0 30
    endloop
  endfacet
  facet normal -0 0 1
    outer loop
      vertex 10 2 6
      vertex 22.48 0 6
      vertex 22.48 2 6
    endloop
  endfacet
  facet normal 0 0 1
    outer loop
      vertex 22.48 0 6
      vertex 10 2 6
      vertex 10 0 6
    endloop
  endfacet
  facet normal 0.948683 -0 0.316228
    outer loop
      vertex 2 0 30
      vertex 10 2 6
      vertex 2 2 30
    endloop
  endfacet
  facet normal 0.948683 0 0.316228
    outer loop
      vertex 10 2 6
      vertex 2 0 30
      vertex 10 0 6
    endloop
  endfacet
  facet normal -0 0 1
    outer loop
      vertex 0 2 30
      vertex 2 0 30
      vertex 2 2 30
    endloop
  endfacet
  facet normal 0 0 1
    outer loop
      vertex 2 0 30
      vertex 0 2 30
      vertex 0 0 30
    endloop
  endfacet
  facet normal -1 0 0
    outer loop
      vertex 0 52.96 6
      vertex 0 62.96 30
      vertex 0 62.96 0
    endloop
  endfacet
  facet normal -1 -0 0
    outer loop
      vertex 0 62.96 30
      vertex 0 52.96 6
      vertex 0 60.96 30
    endloop
  endfacet
  facet normal -1 0 0
    outer loop
      vertex 0 62.96 0
      vertex 0 40.48 6
      vertex 0 52.96 6
    endloop
  endfacet
  facet normal -1 0 0
    outer loop
      vertex 0 40.48 6
      vertex 0 30.48 30
      vertex 0 32.48 30
    endloop
  endfacet
  facet normal -1 0 0
    outer loop
      vertex 0 40.48 6
      vertex 0 22.48 6
      vertex 0 30.48 30
    endloop
  endfacet
  facet normal -1 0 0
    outer loop
      vertex 0 62.96 0
      vertex 0 22.48 6
      vertex 0 40.48 6
    endloop
  endfacet
  facet normal -1 0 0
    outer loop
      vertex 0 0 0
      vertex 0 22.48 6
      vertex 0 62.96 0
    endloop
  endfacet
  facet normal -1 -0 0
    outer loop
      vertex 0 22.48 6
      vertex 0 0 0
      vertex 0 10 6
    endloop
  endfacet
  facet normal -1 0 0
    outer loop
      vertex 0 0 30
      vertex 0 10 6
      vertex 0 0 0
    endloop
  endfacet
  facet normal -1 0 0
    outer loop
      vertex 0 10 6
      vertex 0 0 30
      vertex 0 2 30
    endloop
  endfacet
  facet normal 0 0 -1
    outer loop
      vertex 2 30.48 0
      vertex 30.48 32.48 0
      vertex 30.48 30.48 0
    endloop
  endfacet
  facet normal -0 0 -1
    outer loop
      vertex 30.48 32.48 0
      vertex 2 30.48 0
      vertex 2 32.48 0
    endloop
  endfacet
  facet normal 0 0 -1
    outer loop
      vertex 32.48 30.48 0
      vertex 60.96 32.48 0
      vertex 60.96 30.48 0
    endloop
  endfacet
  facet normal -0 0 -1
    outer loop
      vertex 60.96 32.48 0
      vertex 32.48 30.48 0
      vertex 32.48 32.48 0
    endloop
  endfacet
  facet normal 0 0 -1
    outer loop
      vertex 62.96 30.48 0
      vertex 91.44 32.48 0
      vertex 91.44 30.48 0
    endloop
  endfacet
  facet normal -0 0 -1
    outer loop
      vertex 91.44 32.48 0
      vertex 62.96 30.48 0
      vertex 62.96 32.48 0
    endloop
  endfacet
  facet normal 0 0 -1
    outer loop
      vertex 91.44 30.48 0
      vertex 93.44 62.96 0
      vertex 93.44 0 0
    endloop
  endfacet
  facet normal 0 0 -1
    outer loop
      vertex 91.44 32.48 0
      vertex 93.44 62.96 0
      vertex 91.44 30.48 0
    endloop
  endfacet
  facet normal 0 0 -1
    outer loop
      vertex 91.44 30.48 0
      vertex 93.44 0 0
      vertex 91.44 2 0
    endloop
  endfacet
  facet normal 0 0 -1
    outer loop
      vertex 93.44 0 0
      vertex 62.96 2 0
      vertex 91.44 2 0
    endloop
  endfacet
  facet normal 0 0 -1
    outer loop
      vertex 60.96 30.48 0
      vertex 62.96 30.48 0
      vertex 62.96 2 0
    endloop
  endfacet
  facet normal 0 0 -1
    outer loop
      vertex 62.96 30.48 0
      vertex 60.96 30.48 0
      vertex 62.96 32.48 0
    endloop
  endfacet
  facet normal 0 0 -1
    outer loop
      vertex 60.96 30.48 0
      vertex 62.96 2 0
      vertex 60.96 2 0
    endloop
  endfacet
  facet normal 0 0 -1
    outer loop
      vertex 93.44 0 0
      vertex 60.96 2 0
      vertex 62.96 2 0
    endloop
  endfacet
  facet normal 0 0 -1
    outer loop
      vertex 93.44 0 0
      vertex 32.48 2 0
      vertex 60.96 2 0
    endloop
  endfacet
  facet normal 0 0 -1
    outer loop
      vertex 30.48 30.48 0
      vertex 32.48 30.48 0
      vertex 32.48 2 0
    endloop
  endfacet
  facet normal 0 0 -1
    outer loop
      vertex 32.48 30.48 0
      vertex 30.48 30.48 0
      vertex 32.48 32.48 0
    endloop
  endfacet
  facet normal 0 0 -1
    outer loop
      vertex 30.48 30.48 0
      vertex 32.48 2 0
      vertex 30.48 2 0
    endloop
  endfacet
  facet normal 0 0 -1
    outer loop
      vertex 0 0 0
      vertex 32.48 2 0
      vertex 93.44 0 0
    endloop
  endfacet
  facet normal -0 0 -1
    outer loop
      vertex 32.48 2 0
      vertex 0 0 0
      vertex 30.48 2 0
    endloop
  endfacet
  facet normal 0 0 -1
    outer loop
      vertex 0 0 0
      vertex 2 30.48 0
      vertex 2 2 0
    endloop
  endfacet
  facet normal -0 0 -1
    outer loop
      vertex 2 30.48 0
      vertex 0 0 0
      vertex 2 32.48 0
    endloop
  endfacet
  facet normal 0 0 -1
    outer loop
      vertex 0 62.96 0
      vertex 2 32.48 0
      vertex 0 0 0
    endloop
  endfacet
  facet normal -0 0 -1
    outer loop
      vertex 30.48 2 0
      vertex 0 0 0
      vertex 2 2 0
    endloop
  endfacet
  facet normal 0 0 -1
    outer loop
      vertex 91.44 60.96 0
      vertex 93.44 62.96 0
      vertex 91.44 32.48 0
    endloop
  endfacet
  facet normal 0 0 -1
    outer loop
      vertex 62.96 60.96 0
      vertex 93.44 62.96 0
      vertex 91.44 60.96 0
    endloop
  endfacet
  facet normal 0 0 -1
    outer loop
      vertex 60.96 32.48 0
      vertex 62.96 32.48 0
      vertex 60.96 30.48 0
    endloop
  endfacet
  facet normal 0 0 -1
    outer loop
      vertex 62.96 32.48 0
      vertex 60.96 32.48 0
      vertex 62.96 60.96 0
    endloop
  endfacet
  facet normal 0 0 -1
    outer loop
      vertex 60.96 60.96 0
      vertex 62.96 60.96 0
      vertex 60.96 32.48 0
    endloop
  endfacet
  facet normal 0 0 -1
    outer loop
      vertex 60.96 60.96 0
      vertex 93.44 62.96 0
      vertex 62.96 60.96 0
    endloop
  endfacet
  facet normal 0 0 -1
    outer loop
      vertex 32.48 60.96 0
      vertex 93.44 62.96 0
      vertex 60.96 60.96 0
    endloop
  endfacet
  facet normal 0 0 -1
    outer loop
      vertex 30.48 32.48 0
      vertex 32.48 32.48 0
      vertex 30.48 30.48 0
    endloop
  endfacet
  facet normal 0 0 -1
    outer loop
      vertex 32.48 32.48 0
      vertex 30.48 32.48 0
      vertex 32.48 60.96 0
    endloop
  endfacet
  facet normal 0 0 -1
    outer loop
      vertex 30.48 60.96 0
      vertex 32.48 60.96 0
      vertex 30.48 32.48 0
    endloop
  endfacet
  facet normal 0 0 -1
    outer loop
      vertex 0 62.96 0
      vertex 32.48 60.96 0
      vertex 30.48 60.96 0
    endloop
  endfacet
  facet normal 0 0 -1
    outer loop
      vertex 0 62.96 0
      vertex 30.48 60.96 0
      vertex 2 60.96 0
    endloop
  endfacet
  facet normal 0 0 -1
    outer loop
      vertex 32.48 60.96 0
      vertex 0 62.96 0
      vertex 93.44 62.96 0
    endloop
  endfacet
  facet normal 0 0 -1
    outer loop
      vertex 2 32.48 0
      vertex 0 62.96 0
      vertex 2 60.96 0
    endloop
  endfacet
  facet normal 1 0 0
    outer loop
      vertex 2 30.48 30
      vertex 2 22.48 6
      vertex 2 30.48 0
    endloop
  endfacet
  facet normal 1 -0 0
    outer loop
      vertex 2 10 6
      vertex 2 30.48 0
      vertex 2 22.48 6
    endloop
  endfacet
  facet normal 1 0 0
    outer loop
      vertex 2 10 6
      vertex 2 2 0
      vertex 2 30.48 0
    endloop
  endfacet
  facet normal 1 0 0
    outer loop
      vertex 2 2 0
      vertex 2 10 6
      vertex 2 2 30
    endloop
  endfacet
  facet normal -0 0 1
    outer loop
      vertex 0 32.48 30
      vertex 2 30.48 30
      vertex 2 32.48 30
    endloop
  endfacet
  facet normal 0 0 1
    outer loop
      vertex 0 30.48 30
      vertex 2 30.48 30
      vertex 0 32.48 30
    endloop
  endfacet
  facet normal 0 -0.948683 0.316228
    outer loop
      vertex 0 22.48 6
      vertex 2 30.48 30
      vertex 0 30.48 30
    endloop
  endfacet
  facet normal 0 -0.948683 0.316228
    outer loop
      vertex 2 30.48 30
      vertex 0 22.48 6
      vertex 2 22.48 6
    endloop
  endfacet
  facet normal -0 0 1
    outer loop
      vertex 0 22.48 6
      vertex 2 10 6
      vertex 2 22.48 6
    endloop
  endfacet
  facet normal 0 0 1
    outer loop
      vertex 2 10 6
      vertex 0 22.48 6
      vertex 0 10 6
    endloop
  endfacet
  facet normal 0 0.948683 0.316228
    outer loop
      vertex 2 10 6
      vertex 0 2 30
      vertex 2 2 30
    endloop
  endfacet
  facet normal 0 0.948683 0.316228
    outer loop
      vertex 0 2 30
      vertex 2 10 6
      vertex 0 10 6
    endloop
  endfacet
  facet normal 0 -1 -0
    outer loop
      vertex 10 30.48 6
      vertex 2 30.48 0
      vertex 22.48 30.48 6
    endloop
  endfacet
  facet normal 0 -1 0
    outer loop
      vertex 2 30.48 0
      vertex 10 30.48 6
      vertex 2 30.48 30
    endloop
  endfacet
  facet normal 0 -1 0
    outer loop
      vertex 22.48 30.48 6
      vertex 30.48 30.48 0
      vertex 30.48 30.48 30
    endloop
  endfacet
  facet normal 0 -1 0
    outer loop
      vertex 30.48 30.48 0
      vertex 22.48 30.48 6
      vertex 2 30.48 0
    endloop
  endfacet
  facet normal -0 0 1
    outer loop
      vertex 30.48 32.48 30
      vertex 32.48 30.48 30
      vertex 32.48 32.48 30
    endloop
  endfacet
  facet normal 0 0 1
    outer loop
      vertex 30.48 30.48 30
      vertex 32.48 30.48 30
      vertex 30.48 32.48 30
    endloop
  endfacet
  facet normal -0.948683 0 0.316228
    outer loop
      vertex 22.48 30.48 6
      vertex 30.48 32.48 30
      vertex 22.48 32.48 6
    endloop
  endfacet
  facet normal -0.948683 0 0.316228
    outer loop
      vertex 30.48 32.48 30
      vertex 22.48 30.48 6
      vertex 30.48 30.48 30
    endloop
  endfacet
  facet normal -0 0 1
    outer loop
      vertex 10 32.48 6
      vertex 22.48 30.48 6
      vertex 22.48 32.48 6
    endloop
  endfacet
  facet normal 0 0 1
    outer loop
      vertex 22.48 30.48 6
      vertex 10 32.48 6
      vertex 10 30.48 6
    endloop
  endfacet
  facet normal 0.948683 -0 0.316228
    outer loop
      vertex 2 30.48 30
      vertex 10 32.48 6
      vertex 2 32.48 30
    endloop
  endfacet
  facet normal 0.948683 0 0.316228
    outer loop
      vertex 10 32.48 6
      vertex 2 30.48 30
      vertex 10 30.48 6
    endloop
  endfacet
  facet normal -1 0 0
    outer loop
      vertex 30.48 22.48 6
      vertex 30.48 30.48 30
      vertex 30.48 30.48 0
    endloop
  endfacet
  facet normal -1 0 0
    outer loop
      vertex 30.48 30.48 0
      vertex 30.48 10 6
      vertex 30.48 22.48 6
    endloop
  endfacet
  facet normal -1 0 0
    outer loop
      vertex 30.48 2 0
      vertex 30.48 10 6
      vertex 30.48 30.48 0
    endloop
  endfacet
  facet normal -1 -0 0
    outer loop
      vertex 30.48 10 6
      vertex 30.48 2 0
      vertex 30.48 2 30
    endloop
  endfacet
  facet normal 0 -0.948683 0.316228
    outer loop
      vertex 30.48 22.48 6
      vertex 32.48 30.48 30
      vertex 30.48 30.48 30
    endloop
  endfacet
  facet normal 0 -0.948683 0.316228
    outer loop
      vertex 32.48 30.48 30
      vertex 30.48 22.48 6
      vertex 32.48 22.48 6
    endloop
  endfacet
  facet normal -0 0 1
    outer loop
      vertex 30.48 22.48 6
      vertex 32.48 10 6
      vertex 32.48 22.48 6
    endloop
  endfacet
  facet normal 0 0 1
    outer loop
      vertex 32.48 10 6
      vertex 30.48 22.48 6
      vertex 30.48 10 6
    endloop
  endfacet
  facet normal 0 0.948683 0.316228
    outer loop
      vertex 32.48 10 6
      vertex 30.48 2 30
      vertex 32.48 2 30
    endloop
  endfacet
  facet normal 0 0.948683 0.316228
    outer loop
      vertex 30.48 2 30
      vertex 32.48 10 6
      vertex 30.48 10 6
    endloop
  endfacet
  facet normal 0 1 0
    outer loop
      vertex 52.96 2 6
      vertex 60.96 2 0
      vertex 40.48 2 6
    endloop
  endfacet
  facet normal 0 1 -0
    outer loop
      vertex 60.96 2 0
      vertex 52.96 2 6
      vertex 60.96 2 30
    endloop
  endfacet
  facet normal 0 1 0
    outer loop
      vertex 40.48 2 6
      vertex 32.48 2 0
      vertex 32.48 2 30
    endloop
  endfacet
  facet normal 0 1 0
    outer loop
      vertex 32.48 2 0
      vertex 40.48 2 6
      vertex 60.96 2 0
    endloop
  endfacet
  facet normal -0 0 1
    outer loop
      vertex 60.96 2 30
      vertex 62.96 0 30
      vertex 62.96 2 30
    endloop
  endfacet
  facet normal 0 0 1
    outer loop
      vertex 60.96 2 30
      vertex 60.96 0 30
      vertex 62.96 0 30
    endloop
  endfacet
  facet normal -0.948683 0 0.316228
    outer loop
      vertex 52.96 0 6
      vertex 60.96 2 30
      vertex 52.96 2 6
    endloop
  endfacet
  facet normal -0.948683 0 0.316228
    outer loop
      vertex 60.96 2 30
      vertex 52.96 0 6
      vertex 60.96 0 30
    endloop
  endfacet
  facet normal -0 0 1
    outer loop
      vertex 40.48 2 6
      vertex 52.96 0 6
      vertex 52.96 2 6
    endloop
  endfacet
  facet normal 0 0 1
    outer loop
      vertex 52.96 0 6
      vertex 40.48 2 6
      vertex 40.48 0 6
    endloop
  endfacet
  facet normal 0.948683 -0 0.316228
    outer loop
      vertex 32.48 0 30
      vertex 40.48 2 6
      vertex 32.48 2 30
    endloop
  endfacet
  facet normal 0.948683 0 0.316228
    outer loop
      vertex 40.48 2 6
      vertex 32.48 0 30
      vertex 40.48 0 6
    endloop
  endfacet
  facet normal 1 0 0
    outer loop
      vertex 32.48 30.48 30
      vertex 32.48 22.48 6
      vertex 32.48 30.48 0
    endloop
  endfacet
  facet normal 1 -0 0
    outer loop
      vertex 32.48 10 6
      vertex 32.48 30.48 0
      vertex 32.48 22.48 6
    endloop
  endfacet
  facet normal 1 0 0
    outer loop
      vertex 32.48 10 6
      vertex 32.48 2 0
      vertex 32.48 30.48 0
    endloop
  endfacet
  facet normal 1 0 0
    outer loop
      vertex 32.48 2 0
      vertex 32.48 10 6
      vertex 32.48 2 30
    endloop
  endfacet
  facet normal 0 -1 -0
    outer loop
      vertex 40.48 30.48 6
      vertex 32.48 30.48 0
      vertex 52.96 30.48 6
    endloop
  endfacet
  facet normal 0 -1 0
    outer loop
      vertex 32.48 30.48 0
      vertex 40.48 30.48 6
      vertex 32.48 30.48 30
    endloop
  endfacet
  facet normal 0 -1 0
    outer loop
      vertex 52.96 30.48 6
      vertex 60.96 30.48 0
      vertex 60.96 30.48 30
    endloop
  endfacet
  facet normal 0 -1 0
    outer loop
      vertex 60.96 30.48 0
      vertex 52.96 30.48 6
      vertex 32.48 30.48 0
    endloop
  endfacet
  facet normal -0 0 1
    outer loop
      vertex 60.96 32.48 30
      vertex 62.96 30.48 30
      vertex 62.96 32.48 30
    endloop
  endfacet
  facet normal 0 0 1
    outer loop
      vertex 60.96 30.48 30
      vertex 62.96 30.48 30
      vertex 60.96 32.48 30
    endloop
  endfacet
  facet normal -0.948683 0 0.316228
    outer loop
      vertex 52.96 30.48 6
      vertex 60.96 32.48 30
      vertex 52.96 32.48 6
    endloop
  endfacet
  facet normal -0.948683 0 0.316228
    outer loop
      vertex 60.96 32.48 30
      vertex 52.96 30.48 6
      vertex 60.96 30.48 30
    endloop
  endfacet
  facet normal -0 0 1
    outer loop
      vertex 40.48 32.48 6
      vertex 52.96 30.48 6
      vertex 52.96 32.48 6
    endloop
  endfacet
  facet normal 0 0 1
    outer loop
      vertex 52.96 30.48 6
      vertex 40.48 32.48 6
      vertex 40.48 30.48 6
    endloop
  endfacet
  facet normal 0.948683 -0 0.316228
    outer loop
      vertex 32.48 30.48 30
      vertex 40.48 32.48 6
      vertex 32.48 32.48 30
    endloop
  endfacet
  facet normal 0.948683 0 0.316228
    outer loop
      vertex 40.48 32.48 6
      vertex 32.48 30.48 30
      vertex 40.48 30.48 6
    endloop
  endfacet
  facet normal -1 0 0
    outer loop
      vertex 60.96 22.48 6
      vertex 60.96 30.48 30
      vertex 60.96 30.48 0
    endloop
  endfacet
  facet normal -1 0 0
    outer loop
      vertex 60.96 30.48 0
      vertex 60.96 10 6
      vertex 60.96 22.48 6
    endloop
  endfacet
  facet normal -1 0 0
    outer loop
      vertex 60.96 2 0
      vertex 60.96 10 6
      vertex 60.96 30.48 0
    endloop
  endfacet
  facet normal -1 -0 0
    outer loop
      vertex 60.96 10 6
      vertex 60.96 2 0
      vertex 60.96 2 30
    endloop
  endfacet
  facet normal 0 -0.948683 0.316228
    outer loop
      vertex 60.96 22.48 6
      vertex 62.96 30.48 30
      vertex 60.96 30.48 30
    endloop
  endfacet
  facet normal 0 -0.948683 0.316228
    outer loop
      vertex 62.96 30.48 30
      vertex 60.96 22.48 6
      vertex 62.96 22.48 6
    endloop
  endfacet
  facet normal -0 0 1
    outer loop
      vertex 60.96 22.48 6
      vertex 62.96 10 6
      vertex 62.96 22.48 6
    endloop
  endfacet
  facet normal 0 0 1
    outer loop
      vertex 62.96 10 6
      vertex 60.96 22.48 6
      vertex 60.96 10 6
    endloop
  endfacet
  facet normal 0 0.948683 0.316228
    outer loop
      vertex 62.96 10 6
      vertex 60.96 2 30
      vertex 62.96 2 30
    endloop
  endfacet
  facet normal 0 0.948683 0.316228
    outer loop
      vertex 60.96 2 30
      vertex 62.96 10 6
      vertex 60.96 10 6
    endloop
  endfacet
  facet normal 0 1 0
    outer loop
      vertex 83.44 2 6
      vertex 91.44 2 0
      vertex 70.96 2 6
    endloop
  endfacet
  facet normal 0 1 -0
    outer loop
      vertex 91.44 2 0
      vertex 83.44 2 6
      vertex 91.44 2 30
    endloop
  endfacet
  facet normal 0 1 0
    outer loop
      vertex 70.96 2 6
      vertex 62.96 2 0
      vertex 62.96 2 30
    endloop
  endfacet
  facet normal 0 1 0
    outer loop
      vertex 62.96 2 0
      vertex 70.96 2 6
      vertex 91.44 2 0
    endloop
  endfacet
  facet normal -0 0 1
    outer loop
      vertex 91.44 2 30
      vertex 93.44 0 30
      vertex 93.44 2 30
    endloop
  endfacet
  facet normal 0 0 1
    outer loop
      vertex 91.44 2 30
      vertex 91.44 0 30
      vertex 93.44 0 30
    endloop
  endfacet
  facet normal -0.948683 0 0.316228
    outer loop
      vertex 83.44 0 6
      vertex 91.44 2 30
      vertex 83.44 2 6
    endloop
  endfacet
  facet normal -0.948683 0 0.316228
    outer loop
      vertex 91.44 2 30
      vertex 83.44 0 6
      vertex 91.44 0 30
    endloop
  endfacet
  facet normal -0 0 1
    outer loop
      vertex 70.96 2 6
      vertex 83.44 0 6
      vertex 83.44 2 6
    endloop
  endfacet
  facet normal 0 0 1
    outer loop
      vertex 83.44 0 6
      vertex 70.96 2 6
      vertex 70.96 0 6
    endloop
  endfacet
  facet normal 0.948683 -0 0.316228
    outer loop
      vertex 62.96 0 30
      vertex 70.96 2 6
      vertex 62.96 2 30
    endloop
  endfacet
  facet normal 0.948683 0 0.316228
    outer loop
      vertex 70.96 2 6
      vertex 62.96 0 30
      vertex 70.96 0 6
    endloop
  endfacet
  facet normal 1 0 0
    outer loop
      vertex 62.96 30.48 30
      vertex 62.96 22.48 6
      vertex 62.96 30.48 0
    endloop
  endfacet
  facet normal 1 -0 0
    outer loop
      vertex 62.96 10 6
      vertex 62.96 30.48 0
      vertex 62.96 22.48 6
    endloop
  endfacet
  facet normal 1 0 0
    outer loop
      vertex 62.96 10 6
      vertex 62.96 2 0
      vertex 62.96 30.48 0
    endloop
  endfacet
  facet normal 1 0 0
    outer loop
      vertex 62.96 2 0
      vertex 62.96 10 6
      vertex 62.96 2 30
    endloop
  endfacet
  facet normal 0 -1 -0
    outer loop
      vertex 70.96 30.48 6
      vertex 62.96 30.48 0
      vertex 83.44 30.48 6
    endloop
  endfacet
  facet normal 0 -1 0
    outer loop
      vertex 62.96 30.48 0
      vertex 70.96 30.48 6
      vertex 62.96 30.48 30
    endloop
  endfacet
  facet normal 0 -1 0
    outer loop
      vertex 83.44 30.48 6
      vertex 91.44 30.48 0
      vertex 91.44 30.48 30
    endloop
  endfacet
  facet normal 0 -1 0
    outer loop
      vertex 91.44 30.48 0
      vertex 83.44 30.48 6
      vertex 62.96 30.48 0
    endloop
  endfacet
  facet normal -0 0 1
    outer loop
      vertex 91.44 32.48 30
      vertex 93.44 30.48 30
      vertex 93.44 32.48 30
    endloop
  endfacet
  facet normal 0 0 1
    outer loop
      vertex 91.44 30.48 30
      vertex 93.44 30.48 30
      vertex 91.44 32.48 30
    endloop
  endfacet
  facet normal -0.948683 0 0.316228
    outer loop
      vertex 83.44 30.48 6
      vertex 91.44 32.48 30
      vertex 83.44 32.48 6
    endloop
  endfacet
  facet normal -0.948683 0 0.316228
    outer loop
      vertex 91.44 32.48 30
      vertex 83.44 30.48 6
      vertex 91.44 30.48 30
    endloop
  endfacet
  facet normal -0 0 1
    outer loop
      vertex 70.96 32.48 6
      vertex 83.44 30.48 6
      vertex 83.44 32.48 6
    endloop
  endfacet
  facet normal 0 0 1
    outer loop
      vertex 83.44 30.48 6
      vertex 70.96 32.48 6
      vertex 70.96 30.48 6
    endloop
  endfacet
  facet normal 0.948683 -0 0.316228
    outer loop
      vertex 62.96 30.48 30
      vertex 70.96 32.48 6
      vertex 62.96 32.48 30
    endloop
  endfacet
  facet normal 0.948683 0 0.316228
    outer loop
      vertex 70.96 32.48 6
      vertex 62.96 30.48 30
      vertex 70.96 30.48 6
    endloop
  endfacet
  facet normal -1 0 0
    outer loop
      vertex 91.44 22.48 6
      vertex 91.44 30.48 30
      vertex 91.44 30.48 0
    endloop
  endfacet
  facet normal -1 0 0
    outer loop
      vertex 91.44 30.48 0
      vertex 91.44 10 6
      vertex 91.44 22.48 6
    endloop
  endfacet
  facet normal -1 0 0
    outer loop
      vertex 91.44 2 0
      vertex 91.44 10 6
      vertex 91.44 30.48 0
    endloop
  endfacet
  facet normal -1 -0 0
    outer loop
      vertex 91.44 10 6
      vertex 91.44 2 0
      vertex 91.44 2 30
    endloop
  endfacet
  facet normal 1 0 0
    outer loop
      vertex 93.44 52.96 6
      vertex 93.44 62.96 30
      vertex 93.44 60.96 30
    endloop
  endfacet
  facet normal 1 0 0
    outer loop
      vertex 93.44 62.96 30
      vertex 93.44 52.96 6
      vertex 93.44 62.96 0
    endloop
  endfacet
  facet normal 1 -0 0
    outer loop
      vertex 93.44 40.48 6
      vertex 93.44 62.96 0
      vertex 93.44 52.96 6
    endloop
  endfacet
  facet normal 1 -0 0
    outer loop
      vertex 93.44 30.48 30
      vertex 93.44 40.48 6
      vertex 93.44 32.48 30
    endloop
  endfacet
  facet normal 1 0 0
    outer loop
      vertex 93.44 22.48 6
      vertex 93.44 40.48 6
      vertex 93.44 30.48 30
    endloop
  endfacet
  facet normal 1 -0 0
    outer loop
      vertex 93.44 22.48 6
      vertex 93.44 62.96 0
      vertex 93.44 40.48 6
    endloop
  endfacet
  facet normal 1 0 0
    outer loop
      vertex 93.44 0 0
      vertex 93.44 22.48 6
      vertex 93.44 10 6
    endloop
  endfacet
  facet normal 1 -0 0
    outer loop
      vertex 93.44 0 30
      vertex 93.44 10 6
      vertex 93.44 2 30
    endloop
  endfacet
  facet normal 1 0 0
    outer loop
      vertex 93.44 22.48 6
      vertex 93.44 0 0
      vertex 93.44 62.96 0
    endloop
  endfacet
  facet normal 1 0 0
    outer loop
      vertex 93.44 0 0
      vertex 93.44 10 6
      vertex 93.44 0 30
    endloop
  endfacet
  facet normal 0 -0.948683 0.316228
    outer loop
      vertex 91.44 22.48 6
      vertex 93.44 30.48 30
      vertex 91.44 30.48 30
    endloop
  endfacet
  facet normal 0 -0.948683 0.316228
    outer loop
      vertex 93.44 30.48 30
      vertex 91.44 22.48 6
      vertex 93.44 22.48 6
    endloop
  endfacet
  facet normal -0 0 1
    outer loop
      vertex 91.44 22.48 6
      vertex 93.44 10 6
      vertex 93.44 22.48 6
    endloop
  endfacet
  facet normal 0 0 1
    outer loop
      vertex 93.44 10 6
      vertex 91.44 22.48 6
      vertex 91.44 10 6
    endloop
  endfacet
  facet normal 0 0.948683 0.316228
    outer loop
      vertex 93.44 10 6
      vertex 91.44 2 30
      vertex 93.44 2 30
    endloop
  endfacet
  facet normal 0 0.948683 0.316228
    outer loop
      vertex 91.44 2 30
      vertex 93.44 10 6
      vertex 91.44 10 6
    endloop
  endfacet
  facet normal 0 1 0
    outer loop
      vertex 22.48 32.48 6
      vertex 30.48 32.48 0
      vertex 10 32.48 6
    endloop
  endfacet
  facet normal 0 1 -0
    outer loop
      vertex 30.48 32.48 0
      vertex 22.48 32.48 6
      vertex 30.48 32.48 30
    endloop
  endfacet
  facet normal 0 1 0
    outer loop
      vertex 10 32.48 6
      vertex 2 32.48 0
      vertex 2 32.48 30
    endloop
  endfacet
  facet normal 0 1 0
    outer loop
      vertex 2 32.48 0
      vertex 10 32.48 6
      vertex 30.48 32.48 0
    endloop
  endfacet
  facet normal 1 0 0
    outer loop
      vertex 2 60.96 30
      vertex 2 52.96 6
      vertex 2 60.96 0
    endloop
  endfacet
  facet normal 1 -0 0
    outer loop
      vertex 2 40.48 6
      vertex 2 60.96 0
      vertex 2 52.96 6
    endloop
  endfacet
  facet normal 1 0 0
    outer loop
      vertex 2 40.48 6
      vertex 2 32.48 0
      vertex 2 60.96 0
    endloop
  endfacet
  facet normal 1 0 0
    outer loop
      vertex 2 32.48 0
      vertex 2 40.48 6
      vertex 2 32.48 30
    endloop
  endfacet
  facet normal -0 0 1
    outer loop
      vertex 0 62.96 30
      vertex 2 60.96 30
      vertex 2 62.96 30
    endloop
  endfacet
  facet normal 0 0 1
    outer loop
      vertex 0 60.96 30
      vertex 2 60.96 30
      vertex 0 62.96 30
    endloop
  endfacet
  facet normal 0 -0.948683 0.316228
    outer loop
      vertex 0 52.96 6
      vertex 2 60.96 30
      vertex 0 60.96 30
    endloop
  endfacet
  facet normal 0 -0.948683 0.316228
    outer loop
      vertex 2 60.96 30
      vertex 0 52.96 6
      vertex 2 52.96 6
    endloop
  endfacet
  facet normal -0 0 1
    outer loop
      vertex 0 52.96 6
      vertex 2 40.48 6
      vertex 2 52.96 6
    endloop
  endfacet
  facet normal 0 0 1
    outer loop
      vertex 2 40.48 6
      vertex 0 52.96 6
      vertex 0 40.48 6
    endloop
  endfacet
  facet normal 0 0.948683 0.316228
    outer loop
      vertex 2 40.48 6
      vertex 0 32.48 30
      vertex 2 32.48 30
    endloop
  endfacet
  facet normal 0 0.948683 0.316228
    outer loop
      vertex 0 32.48 30
      vertex 2 40.48 6
      vertex 0 40.48 6
    endloop
  endfacet
  facet normal 0 1 0
    outer loop
      vertex 93.44 62.96 30
      vertex 83.44 62.96 6
      vertex 91.44 62.96 30
    endloop
  endfacet
  facet normal 0 1 0
    outer loop
      vertex 93.44 62.96 0
      vertex 70.96 62.96 6
      vertex 83.44 62.96 6
    endloop
  endfacet
  facet normal 0 1 0
    outer loop
      vertex 70.96 62.96 6
      vertex 93.44 62.96 0
      vertex 52.96 62.96 6
    endloop
  endfacet
  facet normal 0 1 0
    outer loop
      vertex 52.96 62.96 6
      vertex 93.44 62.96 0
      vertex 40.48 62.96 6
    endloop
  endfacet
  facet normal 0 1 0
    outer loop
      vertex 0 62.96 0
      vertex 40.48 62.96 6
      vertex 93.44 62.96 0
    endloop
  endfacet
  facet normal 0 1 0
    outer loop
      vertex 40.48 62.96 6
      vertex 0 62.96 0
      vertex 22.48 62.96 6
    endloop
  endfacet
  facet normal 0 1 -0
    outer loop
      vertex 93.44 62.96 0
      vertex 83.44 62.96 6
      vertex 93.44 62.96 30
    endloop
  endfacet
  facet normal 0 1 0
    outer loop
      vertex 70.96 62.96 6
      vertex 60.96 62.96 30
      vertex 62.96 62.96 30
    endloop
  endfacet
  facet normal 0 1 0
    outer loop
      vertex 60.96 62.96 30
      vertex 70.96 62.96 6
      vertex 52.96 62.96 6
    endloop
  endfacet
  facet normal 0 1 0
    outer loop
      vertex 40.48 62.96 6
      vertex 30.48 62.96 30
      vertex 32.48 62.96 30
    endloop
  endfacet
  facet normal 0 1 0
    outer loop
      vertex 30.48 62.96 30
      vertex 40.48 62.96 6
      vertex 22.48 62.96 6
    endloop
  endfacet
  facet normal 0 1 0
    outer loop
      vertex 10 62.96 6
      vertex 0 62.96 30
      vertex 2 62.96 30
    endloop
  endfacet
  facet normal 0 1 0
    outer loop
      vertex 10 62.96 6
      vertex 0 62.96 0
      vertex 0 62.96 30
    endloop
  endfacet
  facet normal 0 1 0
    outer loop
      vertex 22.48 62.96 6
      vertex 0 62.96 0
      vertex 10 62.96 6
    endloop
  endfacet
  facet normal 0 -1 -0
    outer loop
      vertex 10 60.96 6
      vertex 2 60.96 0
      vertex 22.48 60.96 6
    endloop
  endfacet
  facet normal 0 -1 0
    outer loop
      vertex 2 60.96 0
      vertex 10 60.96 6
      vertex 2 60.96 30
    endloop
  endfacet
  facet normal 0 -1 0
    outer loop
      vertex 22.48 60.96 6
      vertex 30.48 60.96 0
      vertex 30.48 60.96 30
    endloop
  endfacet
  facet normal 0 -1 0
    outer loop
      vertex 30.48 60.96 0
      vertex 22.48 60.96 6
      vertex 2 60.96 0
    endloop
  endfacet
  facet normal 0 0 1
    outer loop
      vertex 30.48 60.96 30
      vertex 32.48 60.96 30
      vertex 32.48 62.96 30
    endloop
  endfacet
  facet normal -0 0 1
    outer loop
      vertex 30.48 62.96 30
      vertex 30.48 60.96 30
      vertex 32.48 62.96 30
    endloop
  endfacet
  facet normal -0.948683 0 0.316228
    outer loop
      vertex 22.48 60.96 6
      vertex 30.48 62.96 30
      vertex 22.48 62.96 6
    endloop
  endfacet
  facet normal -0.948683 0 0.316228
    outer loop
      vertex 30.48 62.96 30
      vertex 22.48 60.96 6
      vertex 30.48 60.96 30
    endloop
  endfacet
  facet normal -0 0 1
    outer loop
      vertex 10 62.96 6
      vertex 22.48 60.96 6
      vertex 22.48 62.96 6
    endloop
  endfacet
  facet normal 0 0 1
    outer loop
      vertex 22.48 60.96 6
      vertex 10 62.96 6
      vertex 10 60.96 6
    endloop
  endfacet
  facet normal 0.948683 -0 0.316228
    outer loop
      vertex 2 60.96 30
      vertex 10 62.96 6
      vertex 2 62.96 30
    endloop
  endfacet
  facet normal 0.948683 0 0.316228
    outer loop
      vertex 10 62.96 6
      vertex 2 60.96 30
      vertex 10 60.96 6
    endloop
  endfacet
  facet normal -1 0 0
    outer loop
      vertex 30.48 52.96 6
      vertex 30.48 60.96 30
      vertex 30.48 60.96 0
    endloop
  endfacet
  facet normal -1 0 0
    outer loop
      vertex 30.48 60.96 0
      vertex 30.48 40.48 6
      vertex 30.48 52.96 6
    endloop
  endfacet
  facet normal -1 0 0
    outer loop
      vertex 30.48 32.48 0
      vertex 30.48 40.48 6
      vertex 30.48 60.96 0
    endloop
  endfacet
  facet normal -1 -0 0
    outer loop
      vertex 30.48 40.48 6
      vertex 30.48 32.48 0
      vertex 30.48 32.48 30
    endloop
  endfacet
  facet normal 0 -0.948683 0.316228
    outer loop
      vertex 30.48 52.96 6
      vertex 32.48 60.96 30
      vertex 30.48 60.96 30
    endloop
  endfacet
  facet normal 0 -0.948683 0.316228
    outer loop
      vertex 32.48 60.96 30
      vertex 30.48 52.96 6
      vertex 32.48 52.96 6
    endloop
  endfacet
  facet normal -0 0 1
    outer loop
      vertex 30.48 52.96 6
      vertex 32.48 40.48 6
      vertex 32.48 52.96 6
    endloop
  endfacet
  facet normal 0 0 1
    outer loop
      vertex 32.48 40.48 6
      vertex 30.48 52.96 6
      vertex 30.48 40.48 6
    endloop
  endfacet
  facet normal 0 0.948683 0.316228
    outer loop
      vertex 32.48 40.48 6
      vertex 30.48 32.48 30
      vertex 32.48 32.48 30
    endloop
  endfacet
  facet normal 0 0.948683 0.316228
    outer loop
      vertex 30.48 32.48 30
      vertex 32.48 40.48 6
      vertex 30.48 40.48 6
    endloop
  endfacet
  facet normal 0 1 0
    outer loop
      vertex 52.96 32.48 6
      vertex 60.96 32.48 0
      vertex 40.48 32.48 6
    endloop
  endfacet
  facet normal 0 1 -0
    outer loop
      vertex 60.96 32.48 0
      vertex 52.96 32.48 6
      vertex 60.96 32.48 30
    endloop
  endfacet
  facet normal 0 1 0
    outer loop
      vertex 40.48 32.48 6
      vertex 32.48 32.48 0
      vertex 32.48 32.48 30
    endloop
  endfacet
  facet normal 0 1 0
    outer loop
      vertex 32.48 32.48 0
      vertex 40.48 32.48 6
      vertex 60.96 32.48 0
    endloop
  endfacet
  facet normal 1 0 0
    outer loop
      vertex 32.48 60.96 30
      vertex 32.48 52.96 6
      vertex 32.48 60.96 0
    endloop
  endfacet
  facet normal 1 -0 0
    outer loop
      vertex 32.48 40.48 6
      vertex 32.48 60.96 0
      vertex 32.48 52.96 6
    endloop
  endfacet
  facet normal 1 0 0
    outer loop
      vertex 32.48 40.48 6
      vertex 32.48 32.48 0
      vertex 32.48 60.96 0
    endloop
  endfacet
  facet normal 1 0 0
    outer loop
      vertex 32.48 32.48 0
      vertex 32.48 40.48 6
      vertex 32.48 32.48 30
    endloop
  endfacet
  facet normal 0 -1 -0
    outer loop
      vertex 40.48 60.96 6
      vertex 32.48 60.96 0
      vertex 52.96 60.96 6
    endloop
  endfacet
  facet normal 0 -1 0
    outer loop
      vertex 32.48 60.96 0
      vertex 40.48 60.96 6
      vertex 32.48 60.96 30
    endloop
  endfacet
  facet normal 0 -1 0
    outer loop
      vertex 52.96 60.96 6
      vertex 60.96 60.96 0
      vertex 60.96 60.96 30
    endloop
  endfacet
  facet normal 0 -1 0
    outer loop
      vertex 60.96 60.96 0
      vertex 52.96 60.96 6
      vertex 32.48 60.96 0
    endloop
  endfacet
  facet normal 0 0 1
    outer loop
      vertex 60.96 60.96 30
      vertex 62.96 60.96 30
      vertex 62.96 62.96 30
    endloop
  endfacet
  facet normal -0 0 1
    outer loop
      vertex 60.96 62.96 30
      vertex 60.96 60.96 30
      vertex 62.96 62.96 30
    endloop
  endfacet
  facet normal -0.948683 0 0.316228
    outer loop
      vertex 52.96 60.96 6
      vertex 60.96 62.96 30
      vertex 52.96 62.96 6
    endloop
  endfacet
  facet normal -0.948683 0 0.316228
    outer loop
      vertex 60.96 62.96 30
      vertex 52.96 60.96 6
      vertex 60.96 60.96 30
    endloop
  endfacet
  facet normal -0 0 1
    outer loop
      vertex 40.48 62.96 6
      vertex 52.96 60.96 6
      vertex 52.96 62.96 6
    endloop
  endfacet
  facet normal 0 0 1
    outer loop
      vertex 52.96 60.96 6
      vertex 40.48 62.96 6
      vertex 40.48 60.96 6
    endloop
  endfacet
  facet normal 0.948683 -0 0.316228
    outer loop
      vertex 32.48 60.96 30
      vertex 40.48 62.96 6
      vertex 32.48 62.96 30
    endloop
  endfacet
  facet normal 0.948683 0 0.316228
    outer loop
      vertex 40.48 62.96 6
      vertex 32.48 60.96 30
      vertex 40.48 60.96 6
    endloop
  endfacet
  facet normal -1 0 0
    outer loop
      vertex 60.96 52.96 6
      vertex 60.96 60.96 30
      vertex 60.96 60.96 0
    endloop
  endfacet
  facet normal -1 0 0
    outer loop
      vertex 60.96 60.96 0
      vertex 60.96 40.48 6
      vertex 60.96 52.96 6
    endloop
  endfacet
  facet normal -1 0 0
    outer loop
      vertex 60.96 32.48 0
      vertex 60.96 40.48 6
      vertex 60.96 60.96 0
    endloop
  endfacet
  facet normal -1 -0 0
    outer loop
      vertex 60.96 40.48 6
      vertex 60.96 32.48 0
      vertex 60.96 32.48 30
    endloop
  endfacet
  facet normal 0 -0.948683 0.316228
    outer loop
      vertex 60.96 52.96 6
      vertex 62.96 60.96 30
      vertex 60.96 60.96 30
    endloop
  endfacet
  facet normal 0 -0.948683 0.316228
    outer loop
      vertex 62.96 60.96 30
      vertex 60.96 52.96 6
      vertex 62.96 52.96 6
    endloop
  endfacet
  facet normal -0 0 1
    outer loop
      vertex 60.96 52.96 6
      vertex 62.96 40.48 6
      vertex 62.96 52.96 6
    endloop
  endfacet
  facet normal 0 0 1
    outer loop
      vertex 62.96 40.48 6
      vertex 60.96 52.96 6
      vertex 60.96 40.48 6
    endloop
  endfacet
  facet normal 0 0.948683 0.316228
    outer loop
      vertex 62.96 40.48 6
      vertex 60.96 32.48 30
      vertex 62.96 32.48 30
    endloop
  endfacet
  facet normal 0 0.948683 0.316228
    outer loop
      vertex 60.96 32.48 30
      vertex 62.96 40.48 6
      vertex 60.96 40.48 6
    endloop
  endfacet
  facet normal 0 1 0
    outer loop
      vertex 83.44 32.48 6
      vertex 91.44 32.48 0
      vertex 70.96 32.48 6
    endloop
  endfacet
  facet normal 0 1 -0
    outer loop
      vertex 91.44 32.48 0
      vertex 83.44 32.48 6
      vertex 91.44 32.48 30
    endloop
  endfacet
  facet normal 0 1 0
    outer loop
      vertex 70.96 32.48 6
      vertex 62.96 32.48 0
      vertex 62.96 32.48 30
    endloop
  endfacet
  facet normal 0 1 0
    outer loop
      vertex 62.96 32.48 0
      vertex 70.96 32.48 6
      vertex 91.44 32.48 0
    endloop
  endfacet
  facet normal 1 0 0
    outer loop
      vertex 62.96 60.96 30
      vertex 62.96 52.96 6
      vertex 62.96 60.96 0
    endloop
  endfacet
  facet normal 1 -0 0
    outer loop
      vertex 62.96 40.48 6
      vertex 62.96 60.96 0
      vertex 62.96 52.96 6
    endloop
  endfacet
  facet normal 1 0 0
    outer loop
      vertex 62.96 40.48 6
      vertex 62.96 32.48 0
      vertex 62.96 60.96 0
    endloop
  endfacet
  facet normal 1 0 0
    outer loop
      vertex 62.96 32.48 0
      vertex 62.96 40.48 6
      vertex 62.96 32.48 30
    endloop
  endfacet
  facet normal 0 -1 -0
    outer loop
      vertex 70.96 60.96 6
      vertex 62.96 60.96 0
      vertex 83.44 60.96 6
    endloop
  endfacet
  facet normal 0 -1 0
    outer loop
      vertex 62.96 60.96 0
      vertex 70.96 60.96 6
      vertex 62.96 60.96 30
    endloop
  endfacet
  facet normal 0 -1 0
    outer loop
      vertex 83.44 60.96 6
      vertex 91.44 60.96 0
      vertex 91.44 60.96 30
    endloop
  endfacet
  facet normal 0 -1 0
    outer loop
      vertex 91.44 60.96 0
      vertex 83.44 60.96 6
      vertex 62.96 60.96 0
    endloop
  endfacet
  facet normal 0 0 1
    outer loop
      vertex 93.44 62.96 30
      vertex 91.44 62.96 30
      vertex 91.44 60.96 30
    endloop
  endfacet
  facet normal 0 0 1
    outer loop
      vertex 91.44 60.96 30
      vertex 93.44 60.96 30
      vertex 93.44 62.96 30
    endloop
  endfacet
  facet normal -0.948683 0 0.316228
    outer loop
      vertex 83.44 60.96 6
      vertex 91.44 62.96 30
      vertex 83.44 62.96 6
    endloop
  endfacet
  facet normal -0.948683 0 0.316228
    outer loop
      vertex 91.44 62.96 30
      vertex 83.44 60.96 6
      vertex 91.44 60.96 30
    endloop
  endfacet
  facet normal -0 0 1
    outer loop
      vertex 70.96 62.96 6
      vertex 83.44 60.96 6
      vertex 83.44 62.96 6
    endloop
  endfacet
  facet normal 0 0 1
    outer loop
      vertex 83.44 60.96 6
      vertex 70.96 62.96 6
      vertex 70.96 60.96 6
    endloop
  endfacet
  facet normal 0.948683 -0 0.316228
    outer loop
      vertex 62.96 60.96 30
      vertex 70.96 62.96 6
      vertex 62.96 62.96 30
    endloop
  endfacet
  facet normal 0.948683 0 0.316228
    outer loop
      vertex 70.96 62.96 6
      vertex 62.96 60.96 30
      vertex 70.96 60.96 6
    endloop
  endfacet
  facet normal -1 0 0
    outer loop
      vertex 91.44 52.96 6
      vertex 91.44 60.96 30
      vertex 91.44 60.96 0
    endloop
  endfacet
  facet normal -1 0 0
    outer loop
      vertex 91.44 60.96 0
      vertex 91.44 40.48 6
      vertex 91.44 52.96 6
    endloop
  endfacet
  facet normal -1 0 0
    outer loop
      vertex 91.44 32.48 0
      vertex 91.44 40.48 6
      vertex 91.44 60.96 0
    endloop
  endfacet
  facet normal -1 -0 0
    outer loop
      vertex 91.44 40.48 6
      vertex 91.44 32.48 0
      vertex 91.44 32.48 30
    endloop
  endfacet
  facet normal 0 -0.948683 0.316228
    outer loop
      vertex 91.44 52.96 6
      vertex 93.44 60.96 30
      vertex 91.44 60.96 30
    endloop
  endfacet
  facet normal 0 -0.948683 0.316228
    outer loop
      vertex 93.44 60.96 30
      vertex 91.44 52.96 6
      vertex 93.44 52.96 6
    endloop
  endfacet
  facet normal -0 0 1
    outer loop
      vertex 91.44 52.96 6
      vertex 93.44 40.48 6
      vertex 93.44 52.96 6
    endloop
  endfacet
  facet normal 0 0 1
    outer loop
      vertex 93.44 40.48 6
      vertex 91.44 52.96 6
      vertex 91.44 40.48 6
    endloop
  endfacet
  facet normal 0 0.948683 0.316228
    outer loop
      vertex 93.44 40.48 6
      vertex 91.44 32.48 30
      vertex 93.44 32.48 30
    endloop
  endfacet
  facet normal 0 0.948683 0.316228
    outer loop
      vertex 91.44 32.48 30
      vertex 93.44 40.48 6
      vertex 91.44 40.48 6
    endloop
  endfacet
endsolid OpenSCAD_Model
